{
    "python.defaultInterpreterPath": "C:\\Program Files (x86)\\Microsoft Visual Studio\\Shared\\Python37_64\\python.exe",
    "python.linting.pylintEnabled": true,
    "python.linting.enabled": true,
    "editor.formatOnSave": true,
    "workbench.editor.enablePreview": false,
    "files.autoSave": "afterDelay"
}
